…
``` r
library(mmex)
test_db <- system.file("extdata", "mmex_test_database_2014-01-26.mmb", package = "mmex")
df_account <- read_mmex_table('accountlist_v1', test_db)
```

Read some selected tables as one data.frame/tibble. Note that this
function joins mostly useful for me, but not all tables.

``` r
library(mmex)
test_db <- system.file("extdata", "mmex_test_database_2014-01-26.mmb", package = "mmex")
df <- read_mmex_db(test_db)
df
#> # A tibble: 8,069 × 22
#>    transid accoun…¹ toacc…² payeeid trans…³ trans…⁴ status trans…⁵ notes categid
#>      <int>    <int>   <int>   <int> <chr>     <dbl> <chr>  <chr>   <chr>   <int>
#>  1       1        3       4      -1 Transf…  -10000 R      ""      "Ini…      16
#>  2       2        1      -1       5 Deposit    1200 R      ""      ""         13
#>  3       3        1      -1       5 Withdr…    -300 R      ""      ""         13
#>  4       4        1      -1       5 Deposit    1500 R      ""      ""         13
#>  5       5        1      -1       5 Withdr…    -375 R      ""      ""         13
#>  6       6        1      -1       5 Deposit    1200 R      ""      ""         13
#>  7       7        1      -1       5 Withdr…    -300 R      ""      ""         13
#>  8       8        1      -1       5 Deposit    1200 R      ""      ""         13
#>  9       9        1      -1       5 Withdr…    -300 R      ""      ""         13
#> 10      10        1      -1       6 Deposit    1600 R      ""      ""         13
#> # … with 8,059 more rows, 12 more variables: subcategid <int>,
#> #   transdate <date>, followupid <int>, totransamount <dbl>, accountname <chr>,
#> #   accounttype <chr>, initialbal <int>, toaccountname <chr>, payeename <chr>,
#> #   categname <chr>, subcategname <chr>, cat_name <chr>, and abbreviated
#> #   variable names ¹​accountid, ²​toaccountid, ³​transcode, ⁴​transamount,
#> #   ⁵​transactionnumber
```
…
